"VertexlitGeneric"
{
"$basetexture" "models/saintblue/arizona/top"
"$bumpmap" "models/saintblue/arizona/top_env"
"$envmap" "env_cubemap"
"$envmaptint" "[ .3 .3 .45 ]"
"$normalmapalphaenvmapmask" "1"
}
